system_chlodzenia | Config1 | Build
BR.AS.IecCompiler.exe, Error = False. Call = BR.AS.IecCompiler.exe "C:\Projects\As_Wc\Logical\Source\Code\Visu\Visu\Main.st"  -o "C:\Projects\As_Wc\Temp\Objects\Config1\4PPC30_043F_23B\Visu1\Main.st.c" -T SG4 -M ARM -B B4.82 -G V4.1.2  -s "Source.Code.Visu.Visu" -t "C:\Projects\As_Wc\Temp" -pointers -extComments -extBitAccess -extConstants -D _SG4 -l "C:\Projects\As_Wc\Logical\Source\Code\Visu\Visu\Types.typ" "C:\Projects\As_Wc\Logical\Source\Code\Visu\Visu\Variables.var" -g "C:\Projects\As_Wc\Logical\Global.typ" "C:\Projects\As_Wc\Logical\Source\Code\Services\USB\Detection\gDetUsbTyp.typ" "C:\Projects\As_Wc\Logical\Source\Code\Services\USB\StringCreator\gStringSupportTyp.typ" "C:\Projects\As_Wc\Logical\Source\Code\Services\USB\FileSupport\gFileSupportTyp.typ" "C:\Projects\As_Wc\Logical\Libraries\operator\operator.typ" "C:\Projects\As_Wc\Logical\Libraries\runtime\runtime.typ" "C:\Projects\As_Wc\Logical\Libraries\astime\astime.typ" "C:\Projects\As_Wc\Logical\Libraries\AsIecCon\AsIecCon.typ" "C:\Projects\As_Wc\Logical\Libraries\FileIO\FileIO.typ" "C:\Projects\As_Wc\Logical\Libraries\AsUSB\AsUSB.typ" "C:\Projects\As_Wc\Logical\Libraries\asstring\asstring.typ" "C:\Projects\As_Wc\Logical\Libraries\standard\standard.typ" "C:\Projects\As_Wc\Logical\Libraries\MTBasics\MTBasics.typ" "C:\Projects\As_Wc\Logical\Libraries\brsystem\brsystem.typ" "C:\Projects\As_Wc\Logical\Libraries\MTTypes\MTTypes.typ" "C:\Projects\As_Wc\Logical\Libraries\sys_lib\sys_lib.typ" "C:\Projects\As_Wc\Logical\Libraries\MTFilter\MTFilter.typ" "C:\Projects\As_Wc\Logical\Libraries\operator\operator.fun" "C:\Projects\As_Wc\Logical\Libraries\runtime\runtime.fun" "C:\Projects\As_Wc\Logical\Libraries\astime\astime.fun" "C:\Projects\As_Wc\Logical\Libraries\AsIecCon\AsIecCon.fun" "C:\Projects\As_Wc\Logical\Libraries\FileIO\FileIO.fun" "C:\Projects\As_Wc\Logical\Libraries\AsUSB\AsUSB.fun" "C:\Projects\As_Wc\Logical\Libraries\asstring\asstring.fun" "C:\Projects\As_Wc\Logical\Libraries\standard\standard.fun" "C:\Projects\As_Wc\Logical\Libraries\MTBasics\MTBasics.fun" "C:\Projects\As_Wc\Logical\Libraries\brsystem\brsystem.fun" "C:\Projects\As_Wc\Logical\Libraries\MTTypes\MTTypes.fun" "C:\Projects\As_Wc\Logical\Libraries\sys_lib\sys_lib.fun" "C:\Projects\As_Wc\Logical\Libraries\MTFilter\MTFilter.fun" "C:\Projects\As_Wc\Logical\Global.var" "C:\Projects\As_Wc\Logical\Source\Code\Services\USB\Detection\gDetUsbVar.var" "C:\Projects\As_Wc\Logical\Source\Code\Services\USB\StringCreator\gStringSupportVar.var" "C:\Projects\As_Wc\Logical\Source\Code\Services\USB\FileSupport\gFileSupportVar.var" "C:\Projects\As_Wc\Logical\Libraries\operator\operator.var" "C:\Projects\As_Wc\Logical\Libraries\runtime\runtime.var" "C:\Projects\As_Wc\Logical\Libraries\astime\astime.var" "C:\Projects\As_Wc\Logical\Libraries\AsIecCon\AsIecCon.var" "C:\Projects\As_Wc\Logical\Libraries\FileIO\FileIO.var" "C:\Projects\As_Wc\Logical\Libraries\AsUSB\AsUSB.var" "C:\Projects\As_Wc\Logical\Libraries\asstring\asstring.var" "C:\Projects\As_Wc\Logical\Libraries\standard\standard.var" "C:\Projects\As_Wc\Logical\Libraries\MTBasics\MTBasics.var" "C:\Projects\As_Wc\Logical\Libraries\brsystem\brsystem.var" "C:\Projects\As_Wc\Logical\Libraries\MTTypes\MTTypes.var" "C:\Projects\As_Wc\Logical\Libraries\sys_lib\sys_lib.var" "C:\Projects\As_Wc\Logical\Libraries\MTFilter\MTFilter.var" -P "C:\Projects\As_Wc" 
BR.AS.CCompiler.exe, Error = False. Call = BR.AS.CCompiler.exe "C:\Projects\As_Wc\Temp\Objects\Config1\4PPC30_043F_23B\Visu1\Main.st.c"  -o "C:\Projects\As_Wc\Temp\Objects\Config1\4PPC30_043F_23B\Visu1\Main.st.o" -T SG4 -M ARM -B B4.82 -G V4.1.2  -s "Source.Code.Visu.Visu" -specs=ARMspecs_brelf -I "C:\Projects\As_Wc\Logical\Source\Code\Visu\Visu" "C:\Projects\As_Wc\Temp\Includes\Source\Code\Visu\Visu" "C:\Projects\As_Wc\Temp\Includes\Source\Code\Visu" "C:\Projects\As_Wc\Temp\Includes\Source\Code" "C:\Projects\As_Wc\Temp\Includes\Source" "C:\Projects\As_Wc\Temp\Includes" -ansi -D _DEFAULT_INCLUDES -D _SG4 -fPIC -O0 -ggdb -Wall -w -include "C:\Projects\As_Wc\Temp\Objects\Config1\4PPC30_043F_23B\Libraries.h" -ansic -x c -P "C:\Projects\As_Wc"
BR.AS.IecCompiler.exe, Error = False. Call = BR.AS.IecCompiler.exe "C:\BrAutomation\AS48\AS\GnuInst\V4.1.2\arm-elf\include\bur\_bur_pvdef.st"  -o "C:\Projects\As_Wc\Temp\Objects\Config1\4PPC30_043F_23B\Visu1\_bur_pvdef.st.c" -S "Main.st"  -T SG4 -M ARM -B B4.82 -G V4.1.2  -s "Source.Code.Visu.Visu" -t "C:\Projects\As_Wc\Temp" -pointers -extComments -extBitAccess -extConstants -D _SG4 -l "C:\Projects\As_Wc\Logical\Source\Code\Visu\Visu\Types.typ" "C:\Projects\As_Wc\Logical\Source\Code\Visu\Visu\Variables.var" -g "C:\Projects\As_Wc\Logical\Global.typ" "C:\Projects\As_Wc\Logical\Source\Code\Services\USB\Detection\gDetUsbTyp.typ" "C:\Projects\As_Wc\Logical\Source\Code\Services\USB\StringCreator\gStringSupportTyp.typ" "C:\Projects\As_Wc\Logical\Source\Code\Services\USB\FileSupport\gFileSupportTyp.typ" "C:\Projects\As_Wc\Logical\Libraries\operator\operator.typ" "C:\Projects\As_Wc\Logical\Libraries\runtime\runtime.typ" "C:\Projects\As_Wc\Logical\Libraries\astime\astime.typ" "C:\Projects\As_Wc\Logical\Libraries\AsIecCon\AsIecCon.typ" "C:\Projects\As_Wc\Logical\Libraries\FileIO\FileIO.typ" "C:\Projects\As_Wc\Logical\Libraries\AsUSB\AsUSB.typ" "C:\Projects\As_Wc\Logical\Libraries\asstring\asstring.typ" "C:\Projects\As_Wc\Logical\Libraries\standard\standard.typ" "C:\Projects\As_Wc\Logical\Libraries\MTBasics\MTBasics.typ" "C:\Projects\As_Wc\Logical\Libraries\brsystem\brsystem.typ" "C:\Projects\As_Wc\Logical\Libraries\MTTypes\MTTypes.typ" "C:\Projects\As_Wc\Logical\Libraries\sys_lib\sys_lib.typ" "C:\Projects\As_Wc\Logical\Libraries\MTFilter\MTFilter.typ" "C:\Projects\As_Wc\Logical\Libraries\operator\operator.fun" "C:\Projects\As_Wc\Logical\Libraries\runtime\runtime.fun" "C:\Projects\As_Wc\Logical\Libraries\astime\astime.fun" "C:\Projects\As_Wc\Logical\Libraries\AsIecCon\AsIecCon.fun" "C:\Projects\As_Wc\Logical\Libraries\FileIO\FileIO.fun" "C:\Projects\As_Wc\Logical\Libraries\AsUSB\AsUSB.fun" "C:\Projects\As_Wc\Logical\Libraries\asstring\asstring.fun" "C:\Projects\As_Wc\Logical\Libraries\standard\standard.fun" "C:\Projects\As_Wc\Logical\Libraries\MTBasics\MTBasics.fun" "C:\Projects\As_Wc\Logical\Libraries\brsystem\brsystem.fun" "C:\Projects\As_Wc\Logical\Libraries\MTTypes\MTTypes.fun" "C:\Projects\As_Wc\Logical\Libraries\sys_lib\sys_lib.fun" "C:\Projects\As_Wc\Logical\Libraries\MTFilter\MTFilter.fun" "C:\Projects\As_Wc\Logical\Global.var" "C:\Projects\As_Wc\Logical\Source\Code\Services\USB\Detection\gDetUsbVar.var" "C:\Projects\As_Wc\Logical\Source\Code\Services\USB\StringCreator\gStringSupportVar.var" "C:\Projects\As_Wc\Logical\Source\Code\Services\USB\FileSupport\gFileSupportVar.var" "C:\Projects\As_Wc\Logical\Libraries\operator\operator.var" "C:\Projects\As_Wc\Logical\Libraries\runtime\runtime.var" "C:\Projects\As_Wc\Logical\Libraries\astime\astime.var" "C:\Projects\As_Wc\Logical\Libraries\AsIecCon\AsIecCon.var" "C:\Projects\As_Wc\Logical\Libraries\FileIO\FileIO.var" "C:\Projects\As_Wc\Logical\Libraries\AsUSB\AsUSB.var" "C:\Projects\As_Wc\Logical\Libraries\asstring\asstring.var" "C:\Projects\As_Wc\Logical\Libraries\standard\standard.var" "C:\Projects\As_Wc\Logical\Libraries\MTBasics\MTBasics.var" "C:\Projects\As_Wc\Logical\Libraries\brsystem\brsystem.var" "C:\Projects\As_Wc\Logical\Libraries\MTTypes\MTTypes.var" "C:\Projects\As_Wc\Logical\Libraries\sys_lib\sys_lib.var" "C:\Projects\As_Wc\Logical\Libraries\MTFilter\MTFilter.var" -P "C:\Projects\As_Wc" 
BR.AS.CCompiler.exe, Error = False. Call = BR.AS.CCompiler.exe "C:\Projects\As_Wc\Temp\Objects\Config1\4PPC30_043F_23B\Visu1\_bur_pvdef.st.c"  -o "C:\Projects\As_Wc\Temp\Objects\Config1\4PPC30_043F_23B\Visu1\_bur_pvdef.st.o" -T SG4 -M ARM -B B4.82 -G V4.1.2  -s "Source.Code.Visu.Visu" -t "C:\Projects\As_Wc\Temp" -specs=ARMspecs_brelf -I "C:\Projects\As_Wc\Logical\Source\Code\Visu\Visu" "C:\Projects\As_Wc\Temp\Includes\Source\Code\Visu\Visu" "C:\Projects\As_Wc\Temp\Includes\Source\Code\Visu" "C:\Projects\As_Wc\Temp\Includes\Source\Code" "C:\Projects\As_Wc\Temp\Includes\Source" "C:\Projects\As_Wc\Temp\Includes" -trigraphs -fno-asm -D _DEFAULT_INCLUDES -D _SG4 -fPIC -O0 -ggdb -Wall -include "C:\Projects\As_Wc\Temp\Objects\Config1\4PPC30_043F_23B\Libraries.h" -P "C:\Projects\As_Wc"
BR.AS.CCompiler.exe, Error = False. Call = BR.AS.CCompiler.exe  -link "C:\Projects\As_Wc\Temp\Objects\Config1\4PPC30_043F_23B\Visu1\Main.st.o" "C:\Projects\As_Wc\Temp\Objects\Config1\4PPC30_043F_23B\Visu1\_bur_pvdef.st.o"  -o "C:\Projects\As_Wc\Temp\Objects\Config1\4PPC30_043F_23B\Visu1\a.out" -G V4.1.2  -T SG4 -M ARM "-Wl,C:\Projects\As_Wc\Logical\Libraries\MTFilter\SG4\Arm\libMTFilter.a" "-Wl,C:\Projects\As_Wc\Logical\Libraries\MTBasics\SG4\Arm\libMTBasics.a" "-Wl,C:\BrAutomation\AS\System\B0482\SG4\Arm\libAsIecCon.a" "-Wl,C:\BrAutomation\AS\System\B0482\SG4\Arm\libsys_lib.a" "-Wl,C:\BrAutomation\AS\System\B0482\SG4\Arm\libbrsystem.a" "-Wl,C:\BrAutomation\AS\System\B0482\SG4\Arm\libAsUSB.a" "-Wl,C:\BrAutomation\AS\System\B0482\SG4\Arm\libFileIO.a" "-Wl,C:\BrAutomation\AS\System\B0482\SG4\Arm\libastime.a" "-Wl,C:\Projects\As_Wc\Logical\Libraries\MTTypes\SG4\Arm\libMTTypes.a" "-Wl,C:\BrAutomation\AS\System\B0482\SG4\Arm\libstandard.a" "-Wl,C:\BrAutomation\AS\System\B0482\SG4\Arm\libasstring.a" "-Wl,C:\BrAutomation\AS\System\B0482\SG4\Arm\libruntime.a" "-Wl,C:\BrAutomation\AS\System\B0482\SG4\Arm\liboperator.a" -specs=ARMspecs_brelf -nostdlib -lm
BR.AS.Backend.exe, Error = False. Call = BR.AS.Backend.exe "C:\Projects\As_Wc\Temp\Objects\Config1\4PPC30_043F_23B\Visu1\a.out"  -o "C:\Projects\As_Wc\Temp\Objects\Config1\4PPC30_043F_23B\Visu1\Visu1.ox" -T SG4 -M ARM -r Cyclic4 -G V4.1.2  -B B4.82 
BR.AS.TaskBuilder.exe, Error = False. Call = BR.AS.TaskBuilder.exe "C:\Projects\As_Wc\Temp\Objects\Config1\4PPC30_043F_23B\Visu1\Visu1.ox"  -o "C:\Projects\As_Wc\Temp\Objects\Config1\4PPC30_043F_23B\Visu1.br" -v V1.00.0 -f "C:\Projects\As_Wc\Temp\Objects\Config1\4PPC30_043F_23B\NT.ofs" -offsetLT "C:\Projects\As_Wc\Binaries\Config1\4PPC30_043F_23B\LT.ofs" -T SG4 -M ARM -B B4.82 -G V4.1.2  -extConstants -d "runtime: V* - V*,asieccon: V* - V*" -r Cyclic4 -p 3 -s "Source.Code.Visu.Visu" -L "AsIecCon: V*, asstring: V*, astime: V*, AsUSB: V*, brsystem: V*, FileIO: V*, MTBasics: V5.08.0, MTFilter: V5.08.0, MTTypes: V1.03.4, operator: V*, runtime: V*, standard: V*, sys_lib: V*" -P "C:\Projects\As_Wc" 
BR.VC.AnalyseObject.exe, Error = False. Call = BR.VC.AnalyseObject.exe "Source.Visu.Visu" -o "C:\Projects\As_Wc\Temp\Objects\Config1\4PPC30_043F_23B\Visu.br" -T SG4 -B B4.82 -c "Config1" -S "4PPC30_043F_23B" -P "C:\Projects\As_Wc" -t "C:\Projects\As_Wc\Temp" -H "C:\Projects\As_Wc\Physical\Config1\Hardware.hw" -V "V4.72.1" -apj "system_chlodzenia" -v V1.00.0 -m "C:\Projects\As_Wc\Temp\Objects\Config1\4PPC30_043F_23B\ConfigInfo.cfi" -g "C:\Projects\As_Wc\Temp\Objects\Declarations.lst" -w2 -sfas
mingw32-make.exe, Error = False. Call = mingw32-make.exe  -r -f "C:\Projects\As_Wc\Temp\Objects\Config1\4PPC30_043F_23B\#cpu_vc.mak" -k
mingw32-make.exe, Error = False. Call = mingw32-make.exe  -r -f "C:\Projects\As_Wc\Temp\Objects\Config1\4PPC30_043F_23B\#cpu_tp.mak" -k
BR.AS.FinalizeBuild.exe, Error = False. Call = BR.AS.FinalizeBuild.exe  "C:\Projects\As_Wc\system_chlodzenia.apj" -t "C:\Projects\As_Wc\Temp" -o "C:\Projects\As_Wc\Binaries" -c "Config1" -i "C:\BrAutomation\AS48" -S "4PPC30_043F_23B" -A "PPC3x" -pil -swFiles "C:\Projects\As_Wc\Physical\Config1\4PPC30_043F_23B\Cpu.sw" -Z "UnitSystem: n.d, Connectivity: n.d, ProgrammingSystem: n.d, TextSystem: n.d, RemanentData: n.d, AAS: n.d" -C "/RT=1000 /AM=*" -D "/IF=COM1 /BD=57600 /PA=2 /IT=20 /RS=0" -M ARM -T SG4
